{
  "name": "sec-icons",
  "css_prefix_text": "icon-",
  "css_use_suffix": false,
  "hinting": true,
  "units_per_em": 1000,
  "ascent": 850,
  "glyphs": [
    {
      "uid": "513ac180ff85bd275f2b736720cbbf5e",
      "css": "home",
      "code": 59393,
      "src": "entypo"
    },
    {
      "uid": "390d6d13398cbf8c8c3c5493f7d34088",
      "css": "export",
      "code": 59406,
      "src": "entypo"
    },
    {
      "uid": "a42b598e4298f3319b25a2702a02e7ff",
      "css": "location",
      "code": 59404,
      "src": "entypo"
    },
    {
      "uid": "1d7c1d30ad49a988556273a238097c2a",
      "css": "doc-text-inv",
      "code": 59402,
      "src": "entypo"
    },
    {
      "uid": "f11c9e95ae5eaa84d193e8fa1d38c6f9",
      "css": "down-open-mini",
      "code": 59394,
      "src": "entypo"
    },
    {
      "uid": "592717bd601645d61517d2a584d04127",
      "css": "left-open-mini",
      "code": 59395,
      "src": "entypo"
    },
    {
      "uid": "37f6cfbb4062ed0d01b351ec35c334ff",
      "css": "right-open-mini",
      "code": 59396,
      "src": "entypo"
    },
    {
      "uid": "9e251fb8e9e1c71ab09683468e0479a3",
      "css": "up-open-mini",
      "code": 59397,
      "src": "entypo"
    },
    {
      "uid": "289b5f92f23acf1059c93fbf401c1ad5",
      "css": "down-open-big",
      "code": 59407,
      "src": "entypo"
    },
    {
      "uid": "884cfc3e6e2d456dd2a2ca0dbb9e6337",
      "css": "left-open-big",
      "code": 59408,
      "src": "entypo"
    },
    {
      "uid": "004882ab2d5c418c5b2060e80596279b",
      "css": "right-open-big",
      "code": 59409,
      "src": "entypo"
    },
    {
      "uid": "0805cca616b3c12714f35af4d0912c10",
      "css": "up-open-big",
      "code": 59410,
      "src": "entypo"
    },
    {
      "uid": "d5098cb09be5827a2911dbab5af49ad2",
      "css": "down",
      "code": 59398,
      "src": "entypo"
    },
    {
      "uid": "6acd5cf005d48f96787350e72bd45688",
      "css": "left",
      "code": 59399,
      "src": "entypo"
    },
    {
      "uid": "9e67bfab0143d9511f8eef6897caeb88",
      "css": "right",
      "code": 59400,
      "src": "entypo"
    },
    {
      "uid": "43c4064ec1260d0e55c37e0467c75cbb",
      "css": "up",
      "code": 59401,
      "src": "entypo"
    },
    {
      "uid": "89eb512cb82a1c3fe83cb16134f9876c",
      "css": "back-in-time",
      "code": 59403,
      "src": "entypo"
    },
    {
      "uid": "d10920db2e79c997c5e783279291970c",
      "css": "dot-3",
      "code": 59405,
      "src": "entypo"
    },
    {
      "uid": "221947bea81f49a11b863c686a7bd235",
      "css": "search",
      "code": 59392,
      "src": "websymbols"
    }
  ]
}